<?xml version="1.0" ?>

<!-- Uploaded to: SVG Repo, www.svgrepo.com, Generator: SVG Repo Mixer Tools -->
<svg width="800px" height="800px" viewBox="0 0 48 48" data-name="Layer 1" id="Layer_1" xmlns="http://www.w3.org/2000/svg">

<defs>

<style>
      .cls-1, .cls-2 {
        fill: none;
        stroke: #2E7D32;
        stroke-linecap: round;
        stroke-width: 2px;
      }

      .cls-1 {
        stroke-linejoin: round;
      }

      .cls-2 {
        stroke-miterlimit: 10;
      }
    </style>

</defs>

<title/>

<g>

<polyline class="cls-1" points="1 12.177 10.158 25.332 26.233 36.716 23.911 17.156 11.753 1"/>

<polyline class="cls-2" points="10.158 25.332 12.064 20.71 17.035 21.244 18.94 16.621 23.911 17.156"/>

<line class="cls-2" x1="19.5665" x2="24.7239" y1="31.373" y2="28.30686"/>

</g>

<polyline class="cls-2" points="28.447 39.595 33.315 46.936 47 30.936"/>

</svg>