<?xml version="1.0" ?>

<!-- Uploaded to: SVG Repo, www.svgrepo.com, Generator: SVG Repo Mixer Tools -->
<svg width="800px" height="800px" viewBox="0 0 48 48" data-name="Layer 1" id="Layer_1" xmlns="http://www.w3.org/2000/svg">

<defs>

<style>
      .cls-1, .cls-2 {
        fill: none;
        stroke: #FF8F00;
        stroke-linecap: round;
        stroke-width: 2px;
      }

      .cls-1 {
        stroke-linejoin: round;
      }

      .cls-2 {
        stroke-miterlimit: 10;
      }
    </style>

</defs>

<title/>

<path class="cls-1" d="M27.005,31.91715l0,10.1605a1.12111,1.12111,0,0,0,1.12111,1.12111l7.1586,0,3.88166,3.802v-3.802l6.71749,0A1.12111,1.12111,0,0,0,47.005,42.07758l0-12.706a1.12111,1.12111,0,0,0-1.12111-1.12111l-13.63354,0"/>

<g>

<polyline class="cls-1" points="1 12.314 11 22.314 29.385 29.385 22.314 11 12.314 1"/>

<polyline class="cls-2" points="11 22.314 11.707 17.364 16.657 16.657 17.364 11.707 22.314 11"/>

<line class="cls-2" x1="21.60645" x2="25.8491" y1="25.84901" y2="21.60637"/>

</g>

</svg>